<svg width="24" height="24" viewBox="0 0 24 24" fill="none" xmlns="http://www.w3.org/2000/svg">
<rect x="9.99999" width="4" height="24" rx="2" fill="#FFF9F9"/>
<rect x="24" y="9" width="4" height="24" rx="2" transform="rotate(90 24 9)" fill="#FFF9F9"/>
</svg>
